{
    "DecodingKeys": {
        "0x65bc19a2": {
            "Hlt1SelectionID": {
                "1": "Hlt1TwoTrackMVACharmXSecDecision",
                "2": "Hlt1TrackMVADecision",
                "3": "Hlt1TwoTrackMVADecision",
                "4": "Hlt1D2KKDecision",
                "5": "Hlt1D2KPiDecision",
                "6": "Hlt1D2PiPiDecision",
                "7": "Hlt1KsToPiPiDecision",
                "8": "Hlt1TwoTrackKsDecision",
                "9": "Hlt1TwoKsDecision",
                "10": "Hlt1L02PPiDecision",
                "11": "Hlt1OneMuonTrackLineDecision",
                "12": "Hlt1SingleHighPtMuonDecision",
                "13": "Hlt1SingleHighPtMuonNoMuIDDecision",
                "14": "Hlt1LowPtMuonDecision",
                "15": "Hlt1DiMuonHighMassDecision",
                "16": "Hlt1DiMuonLowMassDecision",
                "17": "Hlt1DiMuonSoftDecision",
                "18": "Hlt1LowPtDiMuonDecision",
                "19": "Hlt1TrackMuonMVADecision",
                "20": "Hlt1DiMuonNoIPDecision",
                "21": "Hlt1DiMuonNoIP_ssDecision",
                "22": "Hlt1DiMuonDrellYan_VLowMassDecision",
                "23": "Hlt1DiMuonDrellYan_VLowMass_SSDecision",
                "24": "Hlt1DiMuonDrellYanDecision",
                "25": "Hlt1DiMuonDrellYan_SSDecision",
                "26": "Hlt1DisplacedDiMuonDecision",
                "27": "Hlt1TrackElectronMVADecision",
                "28": "Hlt1SingleHighPtElectronDecision",
                "29": "Hlt1DisplacedDielectronDecision",
                "30": "Hlt1DisplacedLeptonsDecision",
                "31": "Hlt1SingleHighEtDecision",
                "32": "Hlt1Bs2GammaGammaDecision",
                "33": "Hlt1Pi02GammaGammaDecision",
                "34": "Hlt1LowMassNoipDielectron_massSlice1_promptDecision",
                "35": "Hlt1LowMassNoipDielectron_SS_massSlice1_promptDecision",
                "36": "Hlt1LowMassNoipDielectron_massSlice2_promptDecision",
                "37": "Hlt1LowMassNoipDielectron_SS_massSlice2_promptDecision",
                "38": "Hlt1LowMassNoipDielectron_massSlice3_promptDecision",
                "39": "Hlt1LowMassNoipDielectron_SS_massSlice3_promptDecision",
                "40": "Hlt1LowMassNoipDielectron_massSlice4_promptDecision",
                "41": "Hlt1LowMassNoipDielectron_SS_massSlice4_promptDecision",
                "42": "Hlt1LowMassNoipDielectron_massSlice1_displacedDecision",
                "43": "Hlt1LowMassNoipDielectron_SS_massSlice1_displacedDecision",
                "44": "Hlt1LowMassNoipDielectron_massSlice2_displacedDecision",
                "45": "Hlt1LowMassNoipDielectron_SS_massSlice2_displacedDecision",
                "46": "Hlt1LowMassNoipDielectron_massSlice3_displacedDecision",
                "47": "Hlt1LowMassNoipDielectron_SS_massSlice3_displacedDecision",
                "48": "Hlt1LowMassNoipDielectron_massSlice4_displacedDecision",
                "49": "Hlt1LowMassNoipDielectron_SS_massSlice4_displacedDecision",
                "50": "Hlt1PassthroughDecision",
                "51": "Hlt1TAEPassthroughDecision",
                "52": "Hlt1GECPassthroughDecision",
                "53": "Hlt1ODINLumiDecision",
                "54": "Hlt1ODIN1kHzLumiDecision",
                "55": "Hlt1ODINNoBiasDecision",
                "56": "Hlt1VeloMicroBiasDecision",
                "57": "Hlt1RICH1AlignmentDecision",
                "58": "Hlt1RICH2AlignmentDecision",
                "59": "Hlt1BeamGasDecision",
                "60": "Hlt1D2KPiAlignmentDecision",
                "61": "Hlt1NVELODisplacedTrackDecision",
                "62": "Hlt1NMaterialVertexSeedsDecision",
                "63": "Hlt1DiMuonHighMassAlignmentDecision",
                "64": "Hlt1DiMuonJpsiMassAlignmentDecision",
                "65": "Hlt1DisplacedDiMuonAlignmentDecision"
            },
            "InfoID": {},
            "version": "0"
        }
    }
}